k	recall	P@k
-1	0	0	NO REAL DATA!
0	0.020811966	0.8
1	0.042506285	0.8
2	0.069200605	0.8666667
3	0.09589492	0.9
4	0.112461045	0.84000003
5	0.133273	0.8333334
6	0.15996733	0.8571428
7	0.17065108	0.8
8	0.1973454	0.82222223
9	0.21378331	0.8
10	0.2252212	0.76363635
11	0.24603319	0.7666667
12	0.25191554	0.72307694
13	0.2679261	0.71428573
14	0.29462042	0.73333335
15	0.29962045	0.7
16	0.32131472	0.7058824
17	0.3319985	0.68888885
18	0.3472549	0.68421054
19	0.36293864	0.68
20	0.38407743	0.68571436
21	0.389633	0.6636363
22	0.3998894	0.6521739
23	0.41557318	0.65000004
24	0.4315837	0.648
25	0.4365837	0.63076925
26	0.45314986	0.6296297
27	0.45827803	0.6142857
28	0.47396183	0.6137931
29	0.48539972	0.6066667
30	0.49608344	0.6
31	0.5067672	0.59375
32	0.5225792	0.5939394
33	0.53326297	0.58823526
34	0.53326297	0.5714286
35	0.53326297	0.5555555
36	0.5439467	0.55135137
37	0.54950225	0.5421053
38	0.54950225	0.52820516
39	0.55975866	0.525
40	0.5653143	0.51707315
41	0.5711967	0.5095238
42	0.58132476	0.5069767
43	0.5920086	0.50454545
44	0.6080192	0.50666666
45	0.6080192	0.4956522
46	0.6080192	0.4851064
47	0.6232756	0.4875
48	0.6389593	0.48979592
49	0.6448416	0.48400003
50	0.6549698	0.48235297
51	0.67153597	0.4846154
52	0.67153597	0.47547168
53	0.6876747	0.47777778
54	0.7033585	0.48000002
55	0.7092408	0.475
56	0.7147964	0.47017545
57	0.7199246	0.46551728
58	0.73518103	0.46779662
59	0.7516189	0.47000003
60	0.7625013	0.46885246
61	0.77275765	0.46774197
62	0.78801405	0.4698413
63	0.8040246	0.471875
64	0.82003516	0.4738462
65	0.83016336	0.47272724
66	0.84584713	0.47462687
67	0.86198586	0.47647056
68	0.87299645	0.4753623
69	0.88825285	0.47714287
70	0.9093917	0.4816901
71	0.9309578	0.4861111
72	0.94696826	0.48767123
73	0.95797884	0.48648652
74	0.95797884	0.48000002
75	0.96297896	0.4763158
76	0.9738612	0.4753247
77	0.9839894	0.47435895
78	0.995	0.4734177
79	1.0	0.46999997
-1	2	0	NO REAL DATA!
