k	recall	P@k
-1	0	0	NO REAL DATA!
0	0.034745485	1.0
1	0.06949097	1.0
2	0.097569786	0.9333334
3	0.1116092	0.8
4	0.1463547	0.84
5	0.17395732	0.8333334
6	0.19441709	0.8
7	0.222266	0.8
8	0.24344829	0.7777778
9	0.26438424	0.76
10	0.29223317	0.76363635
11	0.31983578	0.7666667
12	0.34101805	0.75384617
13	0.36862072	0.75714284
14	0.3962233	0.76000005
15	0.42382592	0.7625
16	0.43763548	0.7411765
17	0.45858783	0.7333333
18	0.46548444	0.7052632
19	0.48642033	0.7
20	0.5007061	0.6857143
21	0.5145156	0.6727272
22	0.54211825	0.6782609
23	0.55568147	0.6666666
24	0.56972086	0.656
25	0.59090316	0.65384614
26	0.6047126	0.6444444
27	0.6256486	0.6428572
28	0.6532513	0.64827585
29	0.6603941	0.6333333
30	0.6675369	0.61935484
31	0.6811002	0.6125
32	0.6879967	0.6
33	0.6946634	0.58823526
34	0.70870274	0.5828572
35	0.70870274	0.5666667
36	0.72274226	0.5621621
37	0.72274226	0.5473684
38	0.72274226	0.53333336
39	0.72274226	0.52
40	0.72963876	0.5121951
41	0.7363054	0.5047619
42	0.74344826	0.4976744
43	0.75724137	0.49545455
44	0.7708046	0.49333334
45	0.7708046	0.4826087
46	0.78461415	0.48085108
47	0.7915107	0.475
48	0.79865354	0.46938777
49	0.81983584	0.47200003
50	0.83364534	0.4705882
51	0.85435134	0.4730769
52	0.86791456	0.47169814
53	0.8750574	0.4666667
54	0.8750574	0.4581818
55	0.881954	0.4535714
56	0.881954	0.445614
57	0.881954	0.437931
58	0.8957635	0.4372881
59	0.90243024	0.43333334
60	0.90932673	0.4295082
61	0.9159934	0.42580646
62	0.92313635	0.42222223
63	0.92313635	0.415625
64	0.93717575	0.41538462
65	0.9443186	0.41212124
66	0.95811164	0.41194028
67	0.9652545	0.4088235
68	0.97929394	0.40869564
69	0.97929394	0.40285715
70	0.9861905	0.4
71	0.9861905	0.39444447
72	0.99333334	0.39178082
73	0.99333334	0.38648647
74	1.0	0.384
75	1.0	0.37894738
76	1.0	0.374026
77	1.0	0.36923078
78	1.0	0.36455694
79	1.0	0.35
-1	2	0	NO REAL DATA!
