k	recall	P@k
-1	0	0	NO REAL DATA!
0	0.05747076	1.0
1	0.11494152	1.0
2	0.14855263	0.8666667
3	0.18438597	0.8
4	0.2285234	0.8
5	0.2496345	0.7333333
6	0.26296782	0.6571429
7	0.28741232	0.625
8	0.3099123	0.6
9	0.33435673	0.58000004
10	0.33435673	0.5272727
11	0.35546783	0.5166667
12	0.37849414	0.50769234
13	0.37849414	0.47142857
14	0.37849414	0.44
15	0.3918275	0.425
16	0.40235382	0.4117647
17	0.44871345	0.4333333
18	0.47454676	0.43157893
19	0.48565787	0.42000002
20	0.5201024	0.4285714
21	0.5201024	0.4090909
22	0.5306287	0.4
23	0.55226606	0.4
24	0.55226606	0.384
25	0.55226606	0.3692308
26	0.56226605	0.36296296
27	0.5727924	0.35714284
28	0.5833187	0.35172415
29	0.60581875	0.35333332
30	0.60581875	0.34193546
31	0.6402632	0.35
32	0.6527632	0.34545454
33	0.6527632	0.33529413
34	0.6627632	0.3314286
35	0.6872076	0.33333334
36	0.7221784	0.34054056
37	0.7221784	0.33157894
38	0.7221784	0.32307693
39	0.7221784	0.315
40	0.7327047	0.31219512
41	0.7327047	0.30476195
42	0.7327047	0.29767445
43	0.7327047	0.2909091
44	0.74323106	0.2888889
45	0.76625735	0.29130435
46	0.76625735	0.28510636
47	0.76625735	0.27916664
48	0.7767837	0.277551
49	0.7878948	0.276
50	0.7978948	0.27450985
51	0.7978948	0.26923078
52	0.7978948	0.26415092
53	0.8078948	0.26296297
54	0.8078948	0.2581818
55	0.8203948	0.25714284
56	0.83092105	0.25614035
57	0.85453224	0.25862068
58	0.86786556	0.25762713
59	0.86786556	0.25333333
60	0.8778655	0.252459
61	0.8778655	0.2483871
62	0.8778655	0.24444446
63	0.90147656	0.246875
64	0.9114766	0.24615386
65	0.9114766	0.24242425
66	0.9114766	0.23880596
67	0.9114766	0.23529413
68	0.92147654	0.2347826
69	0.92147654	0.23142858
70	0.9314766	0.23098591
71	0.9420029	0.23055556
72	0.95252925	0.23013699
73	0.9636404	0.22972973
74	0.9894737	0.232
75	1.0	0.23157898
76	1.0	0.22857144
77	1.0	0.22564104
78	1.0	0.2227848
79	1.0	0.25
-1	2	0	NO REAL DATA!
