ChrisBMW20160624-006421	R	Entwicklungsabteilung
ChrisBMW20160624-006421	R	Automobilbau
ChrisBMW20160624-006421	R	Chefdesigner
ChrisBMW20160624-006421	R	Designsprache bei BMW
ChrisBMW20160624-006421	R	US-Fahrzeugindustrie
ChrisBMW20160624-007826	N
ChrisBMW20160624-009171	R	Aktien
ChrisBMW20160624-009171	R	Aktien
ChrisBMW20160624-009171	R	Wettbewerbsfähigkeit
ChrisBMW20160624-009171	R	Firmen
ChrisBMW20160624-009171	R	Markt
ChrisBMW20160624-009171	R	Unternehmens-Quartalsberichten
ChrisBMW20160624-009171	R	Aktien der exportabhängiger Autobauer
ChrisBMW20160624-009171	R	Markt
ChrisBMW20160624-009171	R	Hersteller Daimler und BMW
ChrisBMW20160624-009171	R	Aktien von Volkswagen (VW)
ChrisBMW20160624-009171	R	Konkurrent
ChrisBMW20160624-009171	R	Aktien
ChrisBMW20160624-009171	R	Aktien
ChrisBMW20160624-009171	R	Anteilsscheine
ChrisBMW20160624-009171	R	Aktien
ChrisBMW20160624-009171	R	Geschäftszahlen
ChrisBMW20160624-009171	R	Neugeschäft
ChrisBMW20160624-009171	R	Aktien
ChrisBMW20160624-009171	R	Geschäfte
ChrisBMW20160624-009171	R	Unternehmen
ChrisBMW20160624-003005	N
ChrisBMW20160624-003692	R	Arbeitslosenquote
ChrisBMW20160624-003692	R	Arbeitslosenquote
ChrisBMW20160624-003692	R	Arbeitslosenzahlen
ChrisBMW20160624-003692	R	Hauptversammlung
ChrisBMW20160624-003692	R	Gewerbe
ChrisBMW20160624-003692	R	Gewerbe
ChrisBMW20160624-003692	R	Arbeitslosenzahlen
ChrisBMW20160624-003692	R	Hauptversammlung
ChrisBMW20160624-003692	R	BMW-Jubiläumsfeier anlässlich des 100-jährigen Bestehens
ChrisBMW20160624-005447	R	Profit
ChrisBMW20160624-005447	R	Volkswagen (VW)
ChrisBMW20160624-005447	R	Konkurrenten BMW und Daimler
ChrisBMW20160624-005447	R	Aktien
ChrisBMW20160624-009844	R	Kundschaft
ChrisBMW20160624-009844	R	Branche
ChrisBMW20160624-009844	R	Kundschaft
ChrisBMW20160624-009844	R	Branche
ChrisBMW20160624-009844	R	Kunden
ChrisBMW20160624-009844	R	Manager
ChrisBMW20160624-009844	R	Geschäfte
ChrisBMW20160624-009844	R	Weder von Daimler noch von BMW
ChrisBMW20160624-009844	R	Automarkt
ChrisBMW20160624-009844	R	Autobauer
ChrisBMW20160624-009844	R	Konzern
ChrisBMW20160624-004557	R	Kundschaft
ChrisBMW20160624-004557	R	Marktanteil
ChrisBMW20160624-004557	R	Gewerbe
ChrisBMW20160624-004557	R	Marktanteil
ChrisBMW20160624-004557	R	Märkten
ChrisBMW20160624-004557	R	Gesamtmarkt
ChrisBMW20160624-004557	R	Marke BMW
ChrisBMW20160624-002301	N
ChrisBMW20160624-001847	N
ChrisBMW20160624-008425	N
ChrisBMW20160624-001490	N
ChrisBMW20160624-007473	R	AG
ChrisBMW20160624-007473	R	Wettbewerber
ChrisBMW20160624-007473	R	Markteinführung
ChrisBMW20160624-007473	R	marktbeherrschende Stellung
ChrisBMW20160624-007473	R	Privatkunden
ChrisBMW20160624-007473	R	populärste Marke
ChrisBMW20160624-007473	R	Marktstart
ChrisBMW20160624-007473	R	Entwicklungsbeginn
ChrisBMW20160624-007473	R	Produktionsstart
ChrisBMW20160624-007473	R	Pressevorstellung
ChrisBMW20160624-007473	R	Produktionsbeginn
ChrisBMW20160624-007473	R	Werk
ChrisBMW20160624-007473	R	Serienproduktion
ChrisBMW20160624-007473	R	Produktion
ChrisBMW20160624-007473	R	Fertigung
ChrisBMW20160624-007473	R	Produktion
ChrisBMW20160624-007473	R	Fertigung
ChrisBMW20160624-007473	R	Produktionsende
ChrisBMW20160624-007634	R	Autobauer
ChrisBMW20160624-007634	R	Autohersteller
ChrisBMW20160624-007634	R	Konzern
ChrisBMW20160624-007634	R	Kernmarke
ChrisBMW20160624-007634	R	Verkaufszahlen
ChrisBMW20160624-007634	R	Konzern
ChrisBMW20160624-007634	R	Konkurrenz
ChrisBMW20160624-007634	R	Konkurrenz
ChrisBMW20160624-007634	R	US-Konzernen
ChrisBMW20160624-007060	R	Ex-Manager
ChrisBMW20160624-007060	R	Unternehmen
ChrisBMW20160624-007060	R	Konzern
ChrisBMW20160624-007060	R	Firma
ChrisBMW20160624-007060	R	Konzern
ChrisBMW20160624-007060	R	Organisation
ChrisBMW20160624-007060	R	Konzerne
ChrisBMW20160624-007060	R	Unternehmen
ChrisBMW20160624-007060	R	Manager
ChrisBMW20160624-007060	R	Autokonzern
ChrisBMW20160624-007060	R	Manager
ChrisBMW20160624-007060	R	Manager
ChrisBMW20160624-007060	R	Firma
ChrisBMW20160624-007060	R	Geschäft
ChrisBMW20160624-007060	R	Autokonzern
ChrisBMW20160624-007060	R	Unternehmenskultur
ChrisBMW20160624-007060	R	bei BMW
ChrisBMW20160624-007060	R	Firmen
ChrisBMW20160624-007060	R	Firma
ChrisBMW20160624-007060	R	Firma
ChrisBMW20160624-003637	N
ChrisBMW20160624-009145	R	BMW Group BMW Group
ChrisBMW20160624-009145	R	BMW Group
ChrisBMW20160624-009145	R	BMW Group
ChrisBMW20160624-009145	R	Marke BMW
ChrisBMW20160624-009145	R	BMW Group BMW Group
ChrisBMW20160624-009145	R	BMW Group
ChrisBMW20160624-009145	R	BMW Group
ChrisBMW20160624-009145	R	Marke BMW
ChrisBMW20160624-009145	R	BMW Group
ChrisBMW20160624-009145	R	Marken BMW
ChrisBMW20160624-009145	R	Märkten
ChrisBMW20160624-009145	R	BMW Group
ChrisBMW20160624-009145	R	Vorstands der BMW AG, Vertrieb und Marketing BMW
ChrisBMW20160624-009145	R	Marken
ChrisBMW20160624-009145	R	Märkten
ChrisBMW20160624-009145	R	Marke BMW
ChrisBMW20160624-009145	R	Markteinführung
ChrisBMW20160624-009145	R	Strategie
ChrisBMW20160624-009145	R	BMW Group
ChrisBMW20160624-009145	R	Marken BMW
ChrisBMW20160624-009145	R	Marken BMW
ChrisBMW20160624-009145	R	BMW Group
ChrisBMW20160624-009145	R	BMW Group
ChrisBMW20160624-009145	R	BMW Group
ChrisBMW20160624-009145	R	BMW Group
ChrisBMW20160624-009145	R	Marken BMW
ChrisBMW20160624-009145	R	Konzern
ChrisBMW20160624-009145	R	Unternehmen 30 Produktions- und Montagestätten
ChrisBMW20160624-009145	R	Vertriebsnetzwerk
ChrisBMW20160624-009145	R	BMW Group
ChrisBMW20160624-009145	R	Unternehmen
ChrisBMW20160624-009145	R	BMW Group
ChrisBMW20160624-009145	R	Unternehmen
ChrisBMW20160624-009145	R	Strategie
ChrisBMW20160624-002522	R	Oberklasse-Autobauer
ChrisBMW20160624-002522	R	Oberklasse-Autoherstellern BMW
ChrisBMW20160624-002522	R	Deutsche Oberklasse-Autobauer
ChrisBMW20160624-002522	R	Rivalen BMW
ChrisBMW20160624-002522	R	Oberklasse-Autoherstellern BMW
ChrisBMW20160624-002522	R	Konzerne
ChrisBMW20160624-002522	R	BMW-Konzern
ChrisBMW20160624-002522	R	Marken BMW
ChrisBMW20160624-002522	R	Kernmarken
ChrisBMW20160624-002522	R	Marke BMW
ChrisBMW20160624-002522	R	BMW-Konzern
ChrisBMW20160624-002522	R	Konkurrenten
ChrisBMW20160624-005953	N
ChrisBMW20160624-006649	R	Autofirmen
ChrisBMW20160624-006649	R	Firmen
ChrisBMW20160624-006649	R	Unternehmen
ChrisBMW20160624-006649	R	Firmen
ChrisBMW20160624-009139	R	BMW
ChrisBMW20160624-009139	R	Autohersteller
ChrisBMW20160624-009139	R	Dachgesellschaft
ChrisBMW20160624-009139	R	BMW
ChrisBMW20160624-009139	R	Autohersteller
ChrisBMW20160624-009139	R	Dachgesellschaft
ChrisBMW20160624-009139	R	Firmengründung
ChrisBMW20160624-009139	R	Marke
ChrisBMW20160624-009139	R	Unternehmen
ChrisBMW20160624-009139	R	Autobauer BMW
ChrisBMW20160624-009139	R	Google-Dachkonzern
ChrisBMW20160624-009139	R	Internetkonzerns
ChrisBMW20160624-009139	R	BMW-Tochter
ChrisBMW20160624-009139	R	Marke
ChrisBMW20160624-009139	R	Unternehmen
ChrisBMW20160624-009139	R	Unternehmen
ChrisBMW20160624-009139	R	Firmennamen
ChrisBMW20160624-009139	R	Firmenstruktur
ChrisBMW20160624-009139	R	Unternehmen
ChrisBMW20160624-009139	R	Unternehmen
ChrisBMW20160624-009139	R	Marke
ChrisBMW20160624-009139	R	Konzernumbau
ChrisBMW20160624-009139	R	Dachgesellschaft
ChrisBMW20160624-009139	R	Autobauers BMW
ChrisBMW20160624-009139	R	Firma
ChrisBMW20160624-009139	R	Unternehmen
ChrisBMW20160624-009139	R	Rivalen
ChrisBMW20160624-009139	R	Autobauer
ChrisBMW20160624-009139	R	Internet-Konzern
ChrisBMW20160624-009139	R	Autobranche
ChrisBMW20160624-009139	R	Konzernumbau
ChrisBMW20160624-009139	R	Unternehmens
ChrisBMW20160624-009139	R	Google-Dachkonzern
ChrisBMW20160624-009139	R	Konzernumbau
ChrisBMW20160624-009139	R	Konzern
ChrisBMW20160624-009139	R	Dachgesellschaft
ChrisBMW20160624-009139	R	Unternehmen
ChrisBMW20160624-009139	R	Aktie
ChrisBMW20160624-009139	R	Firmennamen
ChrisBMW20160624-009139	R	Marke
ChrisBMW20160624-000287	N
ChrisBMW20160624-003502	R	Konkurrenz
ChrisBMW20160624-003502	R	Konkurrenz
ChrisBMW20160624-003502	R	Automobilbranche
ChrisBMW20160624-003502	R	Strategie
ChrisBMW20160624-003502	R	Managementkonferenz
ChrisBMW20160624-003502	R	Audi-Konkurrenten
ChrisBMW20160624-003502	R	Geschäftsmodell
ChrisBMW20160624-003502	R	unternehmerischen Beitrag
ChrisBMW20160624-003502	R	Autobauer
ChrisBMW20160624-003502	R	Automobilhersteller
ChrisBMW20160624-003502	R	Autoindustrie
ChrisBMW20160624-003502	R	Konkurrenten
ChrisBMW20160624-003502	R	Strategie
ChrisBMW20160624-003502	R	IT-Konzern
ChrisBMW20160624-003502	R	Autobauer
ChrisBMW20160624-001943	N
ChrisBMW20160624-008615	R	Unternehmen
ChrisBMW20160624-008615	R	Unternehmen
ChrisBMW20160624-008615	R	Unternehmen
ChrisBMW20160624-008615	R	Unternehmen
ChrisBMW20160624-008615	R	Organisationen
ChrisBMW20160624-008615	R	Unternehmen
ChrisBMW20160624-008615	R	Organisationsformen
ChrisBMW20160624-008615	R	Firma
ChrisBMW20160624-008615	R	Konzerns
ChrisBMW20160624-008615	R	Unternehmen
ChrisBMW20160624-008615	R	Arbeitsorganisationsform
ChrisBMW20160624-008615	R	Firmen
ChrisBMW20160624-008615	R	Unternehmen
ChrisBMW20160624-008615	R	Grossunternehmen
ChrisBMW20160624-008615	R	Unternehmen
ChrisBMW20160624-008615	R	Unternehmen
ChrisBMW20160624-008615	R	Unternehmen
ChrisBMW20160624-008615	R	Unternehmen
ChrisBMW20160624-008615	R	Unternehmens
ChrisBMW20160624-008615	R	Unternehmen
ChrisBMW20160624-008615	R	Unternehmen
ChrisBMW20160624-008615	R	Unternehmen
ChrisBMW20160624-008615	R	Unternehmen
ChrisBMW20160624-008615	R	Unternehmen
ChrisBMW20160624-008615	R	Unternehmen
ChrisBMW20160624-008615	R	Unternehmen
ChrisBMW20160624-008615	R	Unternehmen
ChrisBMW20160624-000667	N
ChrisBMW20160624-002708	N
ChrisBMW20160624-005619	N
ChrisBMW20160624-009083	R	Marke
ChrisBMW20160624-009083	R	Marke
ChrisBMW20160624-002128	N
ChrisBMW20160624-003240	N
ChrisBMW20160624-008401	R	BMW-Pressekonferenz: CEO Harald Krüger
ChrisBMW20160624-008401	R	BMW-Chef Krüger
ChrisBMW20160624-008401	R	BMW-Pressekonferenz: CEO Harald Krüger
ChrisBMW20160624-008401	R	Pressekonferenz
ChrisBMW20160624-008401	R	Pressekonferenz
ChrisBMW20160624-008401	R	Unternehmensspitze
ChrisBMW20160624-008401	R	Autobauer
ChrisBMW20160624-008401	R	Autoindustrie BMW
ChrisBMW20160624-008401	R	BMW-Chef Harald Krüger
ChrisBMW20160624-000541	R	Qualitätsunternehmen in der Branche und damit BMW
ChrisBMW20160624-000541	R	Aktien von Unternehmen
ChrisBMW20160624-003066	R	Manufaktur
ChrisBMW20160624-003066	R	Konzernkreisen
ChrisBMW20160624-003066	R	Manufaktur
ChrisBMW20160624-003066	R	Fabrikhalle
ChrisBMW20160624-003066	R	Konzernchef
ChrisBMW20160624-003066	R	Konzerns
ChrisBMW20160624-003066	R	Unternehmen
ChrisBMW20160624-003066	R	Marke
ChrisBMW20160624-003066	R	Manufaktur
ChrisBMW20160624-003066	R	Manufaktur
ChrisBMW20160624-003066	R	Konzern
ChrisBMW20160624-003066	R	Marke
ChrisBMW20160624-003066	R	Wettbewerber BMW
ChrisBMW20160624-003066	R	Kernmarke VW als Marke
ChrisBMW20160624-003066	R	Unternehmen
ChrisBMW20160624-003066	R	Automanufaktur
ChrisBMW20160624-003066	R	Manufaktur
ChrisBMW20160624-003066	R	Manufaktur
ChrisBMW20160624-003066	R	Konzern- und Markenvorstand
ChrisBMW20160624-003066	R	Manufaktur
ChrisBMW20160624-009247	R	Autobauer
ChrisBMW20160624-009247	R	Autobauer
ChrisBMW20160624-009247	R	Autobauer
ChrisBMW20160624-009247	R	Autohersteller
ChrisBMW20160624-009247	R	Konkurrenten
ChrisBMW20160624-009247	R	Autobauern
ChrisBMW20160624-009247	R	Konkurrenz
ChrisBMW20160624-009247	R	US-Unternehmen
ChrisBMW20160624-009247	R	Unternehmen
ChrisBMW20160624-009247	R	Mutterkonzern
ChrisBMW20160624-009247	R	Gewinns
ChrisBMW20160624-009247	R	Autohersteller
ChrisBMW20160624-009247	R	Autobauer
ChrisBMW20160624-009247	R	Autobranche
ChrisBMW20160624-009247	R	Autobauer
ChrisBMW20160624-009247	R	Autoherstellern
ChrisBMW20160624-009247	R	Autohersteller
ChrisBMW20160624-009247	R	US-Konzerne
ChrisBMW20160624-009247	R	Konzerne
ChrisBMW20160624-009247	R	Autohersteller
ChrisBMW20160624-009247	R	Autobauer
ChrisBMW20160624-004903	N
ChrisBMW20160624-005819	N
ChrisBMW20160624-003529	R	Konzern
ChrisBMW20160624-003529	R	Rivalen
ChrisBMW20160624-003529	R	Schwestermarken
ChrisBMW20160624-003529	R	Schwestermarken
ChrisBMW20160624-003529	R	Marken
ChrisBMW20160624-003529	R	Marken
ChrisBMW20160624-003529	R	Konzernmutter
ChrisBMW20160624-003529	R	Konzernabend
ChrisBMW20160624-003529	R	Konzernabend
ChrisBMW20160624-003529	R	Strategie
ChrisBMW20160624-003529	R	Leitmarke
ChrisBMW20160624-003529	R	Tochtermarken
ChrisBMW20160624-003529	R	Konzern
ChrisBMW20160624-003529	R	Markt
ChrisBMW20160624-003529	R	Kia-Konkurrenten
ChrisBMW20160624-003529	R	Wettbewerb
ChrisBMW20160624-003529	R	Konzerns
ChrisBMW20160624-005401	R	Marktanteil
ChrisBMW20160624-005401	R	Autobauer
ChrisBMW20160624-005401	R	Unternehmen
ChrisBMW20160624-005401	R	Marktanteil
ChrisBMW20160624-005401	R	Autohersteller
ChrisBMW20160624-005401	R	Konzern
ChrisBMW20160624-000894	N
ChrisBMW20160624-009034	R	Aktien
ChrisBMW20160624-009034	R	Aktien aus der Automobilindustrie
ChrisBMW20160624-009034	R	Papiere von BMW
ChrisBMW20160624-009034	R	Autobauers
ChrisBMW20160624-009034	R	Geschäfte
ChrisBMW20160624-009034	R	Gesamtmarkt
ChrisBMW20160624-009034	R	Aktionäre
ChrisBMW20160624-002892	R	Unternehmen
ChrisBMW20160624-002892	R	Unternehmen
ChrisBMW20160624-002892	R	Unternehmen
ChrisBMW20160624-002892	R	Unternehmen
ChrisBMW20160624-002892	R	Unternehmen
ChrisBMW20160624-002892	R	Unternehmen
ChrisBMW20160624-002892	R	Firmen
ChrisBMW20160624-002892	R	Unternehmen
ChrisBMW20160624-002892	R	Konkurrenz
ChrisBMW20160624-002892	R	Unternehmen
ChrisBMW20160624-002892	R	Autobauer
ChrisBMW20160624-002892	R	Konkurrenten
ChrisBMW20160624-002892	R	Unternehmen
ChrisBMW20160624-002892	R	Unternehmen
ChrisBMW20160624-002892	R	Autobauers
ChrisBMW20160624-002892	R	Unternehmen
ChrisBMW20160624-002892	R	Konzerne
ChrisBMW20160624-002892	R	Unternehmen
ChrisBMW20160624-002892	R	Firma BMW
ChrisBMW20160624-002892	R	Unternehmen
ChrisBMW20160624-002892	R	Firmen
ChrisBMW20160624-008524	N
ChrisBMW20160624-002876	R	Autobauer
ChrisBMW20160624-002876	R	Autoindustrie
ChrisBMW20160624-002876	R	Autobauer
ChrisBMW20160624-002876	R	Autobauer
ChrisBMW20160624-002876	R	Autobauern
ChrisBMW20160624-002876	R	Autobauer
ChrisBMW20160624-002876	R	Autokonzernen
ChrisBMW20160624-002876	R	Autobauern
ChrisBMW20160624-002876	R	Autobauer BMW
ChrisBMW20160624-007836	R	Autohersteller
ChrisBMW20160624-007836	R	Konzerntöchter
ChrisBMW20160624-007836	R	bei BMW
ChrisBMW20160624-007836	R	Konzernkreisen
ChrisBMW20160624-007836	R	Compliance- und Governance-Standards der gesamten Branche
ChrisBMW20160624-007836	R	Autoherstellern
ChrisBMW20160624-007836	R	Konzern
ChrisBMW20160624-007836	R	Marktaussichten
ChrisBMW20160624-007836	R	Autobauer
ChrisBMW20160624-007836	R	Autoindustrie
ChrisBMW20160624-007836	R	Automobilindustrie
ChrisBMW20160624-007836	R	VW-Konzern
ChrisBMW20160624-007836	R	Autobauer
ChrisBMW20160624-007836	R	gegen BMW
ChrisBMW20160624-007836	R	bei BMW
ChrisBMW20160624-007836	R	bei BMW
ChrisBMW20160624-007836	R	Autobranche
ChrisBMW20160624-007836	R	Automobilkonzern
ChrisBMW20160624-007836	R	Konzernchef
ChrisBMW20160624-007836	R	Manager
ChrisBMW20160624-007836	R	Autobauer
ChrisBMW20160624-007836	R	Autohersteller
ChrisBMW20160624-007836	R	Konzern
ChrisBMW20160624-001095	N
ChrisBMW20160624-007148	N
ChrisBMW20160624-008585	R	Motorradhersteller
ChrisBMW20160624-008585	R	Sportmotorrad-Marke
ChrisBMW20160624-008585	R	Markt
ChrisBMW20160624-008585	R	von BMW
ChrisBMW20160624-008585	R	Zweiradbranche
ChrisBMW20160624-008585	R	an BMW
ChrisBMW20160624-008585	R	Während BMW
ChrisBMW20160624-008387	R	Autobauer
ChrisBMW20160624-008387	R	Autobauer
ChrisBMW20160624-008387	R	Aktien
ChrisBMW20160624-008387	R	Automarkt
ChrisBMW20160624-008387	R	Kernmarke
ChrisBMW20160624-008387	R	Autokonzerne
ChrisBMW20160624-008387	R	Kernmarke
ChrisBMW20160624-008387	R	Marke
ChrisBMW20160624-008387	R	Die Marke BMW
ChrisBMW20160624-004460	N
ChrisBMW20160624-003697	R	Autobauer
ChrisBMW20160624-003697	R	Autohersteller
ChrisBMW20160624-003697	R	Automobilindustrie
ChrisBMW20160624-003697	R	Autoindustrie
ChrisBMW20160624-003697	R	Firma
ChrisBMW20160624-003697	R	Konkurrenten BMW
ChrisBMW20160624-003697	R	Marktführer
ChrisBMW20160624-003697	R	Automobilindustrie
ChrisBMW20160624-003697	R	Markt
ChrisBMW20160624-003697	R	Autohersteller
ChrisBMW20160624-009746	R	Automobilmärkten
ChrisBMW20160624-009746	R	Marke
ChrisBMW20160624-007616	R	Marken
ChrisBMW20160624-007616	R	BMW versichert
ChrisBMW20160624-007616	R	Marken
ChrisBMW20160624-007616	R	BMW versichert
ChrisBMW20160624-007616	R	Konzerns
ChrisBMW20160624-007616	R	Konzernchef
ChrisBMW20160624-007616	R	Aktie
ChrisBMW20160624-007616	R	Herstellers BMW
ChrisBMW20160624-007616	R	Unternehmen
ChrisBMW20160624-007616	R	Marken
ChrisBMW20160624-007616	R	Marktanteil
ChrisBMW20160624-007616	R	Marke
ChrisBMW20160624-007616	R	Marken
ChrisBMW20160624-007616	R	Marktanteil
ChrisBMW20160624-007616	R	Marke
ChrisBMW20160624-003028	R	BMW
ChrisBMW20160624-003028	R	Autobauer
ChrisBMW20160624-003028	R	Autobauer
ChrisBMW20160624-003028	R	Autobauer BMW
ChrisBMW20160624-003028	R	Absatzmarkt
ChrisBMW20160624-007729	N
ChrisBMW20160624-002368	N
ChrisBMW20160624-005081	N
ChrisBMW20160624-004403	R	Autoindustrie
ChrisBMW20160624-004403	R	Autohersteller
ChrisBMW20160624-004403	R	Konzerne
ChrisBMW20160624-003958	N
ChrisBMW20160624-004888	N
ChrisBMW20160624-008445	R	Branche
ChrisBMW20160624-008445	R	Branche
ChrisBMW20160624-008445	R	Schlüsselindustrie
ChrisBMW20160624-008445	R	Autobauer
ChrisBMW20160624-008445	R	Autobranche
ChrisBMW20160624-008445	R	Märkte
ChrisBMW20160624-008445	R	Autobauer
ChrisBMW20160624-008445	R	Geschäftsmodell
ChrisBMW20160624-008445	R	Autohersteller
ChrisBMW20160624-008445	R	Konzernboss
ChrisBMW20160624-008445	R	Branche
ChrisBMW20160624-004447	N
ChrisBMW20160624-006860	R	E-Autobauer
ChrisBMW20160624-006860	R	Konkurrenz
ChrisBMW20160624-006860	R	Unternehmen
ChrisBMW20160624-006860	R	US-Elektroautobauer
ChrisBMW20160624-006860	R	Konzernchef
ChrisBMW20160624-006860	R	Automarkt
ChrisBMW20160624-006860	R	Unternehmen
ChrisBMW20160624-006860	R	Autobauer
ChrisBMW20160624-006860	R	Konkurrenz
ChrisBMW20160624-006860	R	Konkurrenz
ChrisBMW20160624-006860	R	Unternehmen
ChrisBMW20160624-006860	R	Firma
ChrisBMW20160624-005038	R	Konkurrenten
ChrisBMW20160624-005038	R	hinter BMW
ChrisBMW20160624-005038	R	Autobauer
ChrisBMW20160624-005038	R	Konkurrenten
ChrisBMW20160624-005038	R	hinter BMW
ChrisBMW20160624-005038	R	Autobauer
ChrisBMW20160624-005038	R	Marken
ChrisBMW20160624-005038	R	Markt
ChrisBMW20160624-005038	R	Unternehmen
ChrisBMW20160624-005038	R	Marktführer
ChrisBMW20160624-006162	N
ChrisBMW20160624-004224	N
ChrisBMW20160624-007080	R	Oberklasse-Konkurrenten
ChrisBMW20160624-007080	R	Unternehmen
ChrisBMW20160624-007936	R	Unternehmen
ChrisBMW20160624-007936	R	Marke
ChrisBMW20160624-007936	R	Markteintritt
ChrisBMW20160624-007936	R	Strategie
ChrisBMW20160624-007936	R	Marke
ChrisBMW20160624-007936	R	BMW Vertriebs GmbH für BMW
ChrisBMW20160624-007936	R	Marke
ChrisBMW20160624-007936	R	Business-Intelligence-Unternehmen
ChrisBMW20160624-007936	R	Unternehmens- und Produktkommunikation
ChrisBMW20160624-007936	R	Marke
ChrisBMW20160624-007936	R	Dachmarke
ChrisBMW20160624-007936	R	Markteintritt
ChrisBMW20160624-007936	R	Marktführer
ChrisBMW20160624-007936	R	Unternehmen
ChrisBMW20160624-007936	R	company
ChrisBMW20160624-007936	R	Marke
ChrisBMW20160624-007936	R	Unternehmen
ChrisBMW20160624-007936	R	Konzern
ChrisBMW20160624-007936	R	Firmen-Website
ChrisBMW20160624-007936	R	Unternehmens-Publikationen
ChrisBMW20160624-007936	R	Marke
ChrisBMW20160624-007936	R	Automarke
ChrisBMW20160624-007936	R	Unternehmen
ChrisBMW20160624-007936	R	Unternehmen
ChrisBMW20160624-009292	R	Großaktionärin
ChrisBMW20160624-009292	R	BMW-Spitze
ChrisBMW20160624-009292	R	Weltkonzerns
ChrisBMW20160624-009292	R	Firma
ChrisBMW20160624-000982	R	Aktie
ChrisBMW20160624-000982	R	Konzern
ChrisBMW20160624-000982	R	Unternehmen
ChrisBMW20160624-000982	R	Unternehmens
ChrisBMW20160624-000982	R	Konkurrenz
ChrisBMW20160624-000982	R	Marke
ChrisBMW20160624-000982	R	Markteinführung
ChrisBMW20160624-000982	R	Unternehmen
ChrisBMW20160624-000982	R	Unternehmens
ChrisBMW20160624-000982	R	Unternehmen
ChrisBMW20160624-000389	N
ChrisBMW20160624-004497	N
ChrisBMW20160624-003256	R	100 Jahre BMW
ChrisBMW20160624-003256	R	Marke
ChrisBMW20160624-003256	R	100 Jahre BMW
ChrisBMW20160624-003256	R	100 Jahre BMW
ChrisBMW20160624-003256	R	Marke
ChrisBMW20160624-003256	R	Vollgasmarke wie BMW
ChrisBMW20160624-003256	R	bei BMW
ChrisBMW20160624-003256	R	Firmenjubiläum
ChrisBMW20160624-005571	R	Automarkt
ChrisBMW20160624-005571	R	Automarkt
ChrisBMW20160624-005571	R	Automarkt
ChrisBMW20160624-005571	R	Automarkt
ChrisBMW20160624-000573	R	Autokonzern
ChrisBMW20160624-000573	R	Kernmarke BMW
ChrisBMW20160624-000573	R	Autokonzern
ChrisBMW20160624-000573	R	Konkurrenz
ChrisBMW20160624-000573	R	Marken BMW
ChrisBMW20160624-000573	R	Autobauer
ChrisBMW20160624-000573	R	Einzelmarkt
ChrisBMW20160624-000573	R	Kernmarke BMW
ChrisBMW20160624-000573	R	Konkurrent
ChrisBMW20160624-000573	R	Weltmarktführerschaft
ChrisBMW20160624-000573	R	Marke
ChrisBMW20160624-000573	R	Kernmarke
ChrisBMW20160624-003047	N
ChrisBMW20160624-000450	N
ChrisBMW20160624-000702	N
ChrisBMW20160624-002945	N
ChrisBMW20160624-002455	N
ChrisBMW20160624-009323	N
ChrisBMW20160624-009288	N
ChrisBMW20160624-003120	R	Aktien
ChrisBMW20160624-003120	R	Marke
ChrisBMW20160624-003120	R	Markt
ChrisBMW20160624-003120	R	Aktien
ChrisBMW20160624-003120	R	Aktien von Spitzenreiter BMW
ChrisBMW20160624-003120	R	Aktien
ChrisBMW20160624-003120	R	Aktienkurs
ChrisBMW20160624-003120	R	Geschäftszahlen
ChrisBMW20160624-003120	R	Aktie
ChrisBMW20160624-003120	R	Aktie
ChrisBMW20160624-008721	R	Marke BMW
ChrisBMW20160624-008721	R	Marke BMW
ChrisBMW20160624-005656	R	BMW-Absatz
ChrisBMW20160624-005656	R	BMW-Absatz
ChrisBMW20160624-005656	R	Marken BMW
ChrisBMW20160624-005656	R	Unternehmen
ChrisBMW20160624-005656	R	Konkurrent
ChrisBMW20160624-005656	R	Strategiewechsel
ChrisBMW20160624-005656	R	BMW-Gewinn
ChrisBMW20160624-005656	R	Markt
ChrisBMW20160624-000671	R	BMW-Tochter
ChrisBMW20160624-003412	R	Autobauer
ChrisBMW20160624-003412	R	bei BMW
ChrisBMW20160624-003677	R	Weltmarktführer
ChrisBMW20160624-003677	R	Markenbildung
ChrisBMW20160624-008582	R	Tochtergesellschaften
ChrisBMW20160624-008582	R	Aktionäre
ChrisBMW20160624-008582	R	Aktien
ChrisBMW20160624-008582	R	Bayerische Motoren Werke Aktiengesellschaft - BMW
ChrisBMW20160624-008582	R	Aktiengesellschaft
ChrisBMW20160624-008582	R	Unternehmen
ChrisBMW20160624-008582	R	Strategien
ChrisBMW20160624-008582	R	Geschäft
ChrisBMW20160624-008582	R	Strategien
ChrisBMW20160624-008582	R	Manager
ChrisBMW20160624-008582	R	Unternehmen
ChrisBMW20160624-008582	R	Aktien
ChrisBMW20160624-008582	R	Manager
ChrisBMW20160624-008582	R	Manager
ChrisBMW20160624-008582	R	Unternehmen
ChrisBMW20160624-008582	R	Manager
ChrisBMW20160624-008582	R	Geschäfte
ChrisBMW20160624-008582	R	Manager
ChrisBMW20160624-008582	R	Tochtergesellschaften
ChrisBMW20160624-008582	R	Unternehmen
ChrisBMW20160624-008582	R	Unternehmen
ChrisBMW20160624-000026	R	Autoindustrie
ChrisBMW20160624-000026	R	Autoindustrie
ChrisBMW20160624-000026	R	Autohersteller
ChrisBMW20160624-000026	R	Autoindustrie
ChrisBMW20160624-000026	R	Aktionäre
ChrisBMW20160624-000026	R	Autobauer
ChrisBMW20160624-000026	R	Unternehmen
ChrisBMW20160624-000026	R	Management
ChrisBMW20160624-000026	R	Autoindustrie
ChrisBMW20160624-000026	R	Automanager
ChrisBMW20160624-000026	R	Konkurrenz
ChrisBMW20160624-000026	R	Start-up-Unternehmen
ChrisBMW20160624-000026	R	Konkurrenten
ChrisBMW20160624-000026	R	Unternehmen
ChrisBMW20160624-000026	R	Konzernchef
ChrisBMW20160624-000026	R	Konzern
ChrisBMW20160624-000026	R	Konkurrenten
ChrisBMW20160624-000026	R	Autoindustrie
ChrisBMW20160624-000026	R	Autoindustrie
ChrisBMW20160624-000026	R	Autoindustrie
ChrisBMW20160624-000026	R	Konzerne
ChrisBMW20160624-000026	R	Firma
ChrisBMW20160624-000026	R	Autohersteller
ChrisBMW20160624-005604	R	Firma
ChrisBMW20160624-005604	R	Geschäft
ChrisBMW20160624-005604	R	Firma
ChrisBMW20160624-005604	R	Geschäft
ChrisBMW20160624-005604	R	Unternehmen
ChrisBMW20160624-005604	R	Konzerns
ChrisBMW20160624-005604	R	Unternehmens
ChrisBMW20160624-005604	R	Konzerne
ChrisBMW20160624-005604	R	bei BMW
ChrisBMW20160624-005604	R	Firma
ChrisBMW20160624-005604	R	Geschäft
ChrisBMW20160624-005604	R	Unternehmen
ChrisBMW20160624-005604	R	Unternehmen
ChrisBMW20160624-005604	R	Unternehmen
ChrisBMW20160624-005604	R	Unternehmen
ChrisBMW20160624-005604	R	Unternehmen
ChrisBMW20160624-005604	R	Unternehmen
ChrisBMW20160624-005604	R	Unternehmen
ChrisBMW20160624-005604	R	Firma
ChrisBMW20160624-005604	R	Firma
ChrisBMW20160624-005604	R	Management
ChrisBMW20160624-005604	R	Geschäfte
ChrisBMW20160624-005604	R	Geschäft
ChrisBMW20160624-005604	R	Unternehmen
ChrisBMW20160624-005604	R	Aktionäre
ChrisBMW20160624-005604	R	Firma
ChrisBMW20160624-005604	R	Aktien
ChrisBMW20160624-005604	R	Konzernen
ChrisBMW20160624-005604	R	Geschäft
ChrisBMW20160624-005604	R	Unternehmen
ChrisBMW20160624-008741	N
ChrisBMW20160624-008900	R	Märkte
ChrisBMW20160624-008900	R	Märkte
ChrisBMW20160624-008900	R	Marke
ChrisBMW20160624-008900	R	AKTIEN
ChrisBMW20160624-008900	R	AUTOBAUER
ChrisBMW20160624-008900	R	Autobauer
ChrisBMW20160624-008900	R	Absatzmärkte
ChrisBMW20160624-008900	R	Automarkt
ChrisBMW20160624-008900	R	Marke
ChrisBMW20160624-008900	R	Aktienmarkt
ChrisBMW20160624-003948	N
ChrisBMW20160624-004129	N
ChrisBMW20160624-002245	R	Topkonzerne
ChrisBMW20160624-002245	R	Topkonzerne
ChrisBMW20160624-002245	R	Topkonzerne
ChrisBMW20160624-002245	R	Autokonzerns
ChrisBMW20160624-002245	R	Aktionäre
ChrisBMW20160624-002245	R	Konzerne
ChrisBMW20160624-002245	R	Topkonzerne
ChrisBMW20160624-005281	R	Unternehmen
ChrisBMW20160624-005281	R	Branche
ChrisBMW20160624-005281	R	BMW-Konzern
ChrisBMW20160624-003640	R	Autobranche
ChrisBMW20160624-003640	R	Autohersteller
ChrisBMW20160624-003640	R	Autobranche
ChrisBMW20160624-003640	R	Autohersteller
ChrisBMW20160624-003640	R	VW-Tochter
ChrisBMW20160624-003640	R	Firmen
ChrisBMW20160624-002020	N
ChrisBMW20160624-008246	R	Elektroautobauer
ChrisBMW20160624-008246	R	Firma
ChrisBMW20160624-008246	R	Automobilhersteller
ChrisBMW20160624-008246	R	Markt
ChrisBMW20160624-008246	R	Markt
ChrisBMW20160624-008246	R	Automobilherstellern
ChrisBMW20160624-008246	R	Markt
ChrisBMW20160624-008246	R	Automobilherstellern
ChrisBMW20160624-008246	R	Markt
ChrisBMW20160624-008246	R	Markt
