k	recall	P@k
-1	0	0	NO REAL DATA!
0	0.02195407	1.0
1	0.04390814	1.0
2	0.065862216	1.0
3	0.08781628	1.0
4	0.09207161	0.84
5	0.114025675	0.8666666
6	0.13597974	0.88571435
7	0.15793382	0.9
8	0.17988789	0.91111106
9	0.20184198	0.91999996
10	0.22379604	0.9272728
11	0.2414948	0.9166667
12	0.2587977	0.90769225
13	0.2763073	0.9
14	0.29391357	0.8933333
15	0.31586763	0.9
16	0.33356637	0.89411765
17	0.35552043	0.9
18	0.37747455	0.9052631
19	0.39091796	0.89
20	0.40387306	0.8761905
21	0.41692066	0.8636364
22	0.43461937	0.8608696
23	0.4565735	0.8666667
24	0.4697353	0.85599995
25	0.49168935	0.8615384
26	0.5051328	0.8518518
27	0.5183871	0.8428572
28	0.5358967	0.84137934
29	0.54885185	0.8333333
30	0.56189936	0.82580644
31	0.5706917	0.8125
32	0.5840426	0.8060606
33	0.5972044	0.8
34	0.61915845	0.8057143
35	0.6364614	0.8055555
36	0.6497157	0.8
37	0.6588113	0.7894737
38	0.67166966	0.7846154
39	0.6760176	0.77
40	0.680462	0.75609756
41	0.69816077	0.75714284
42	0.7113225	0.75348836
43	0.7155779	0.7409091
44	0.7200223	0.72888887
45	0.72902125	0.7217392
46	0.73753196	0.71489364
47	0.74178725	0.70416665
48	0.75057954	0.6979592
49	0.76788247	0.70000005
50	0.7810443	0.69803923
51	0.7896474	0.69230765
52	0.7939027	0.68301886
53	0.8028091	0.67777777
54	0.81141233	0.6727273
55	0.8247633	0.67142856
56	0.8333664	0.6666666
57	0.8462249	0.6655173
58	0.8462249	0.6542373
59	0.85957587	0.65333337
60	0.8685748	0.6491803
61	0.87301934	0.6419355
62	0.87767047	0.63492066
63	0.88192576	0.628125
64	0.88192576	0.6184615
65	0.89052886	0.6151515
66	0.89903957	0.61194026
67	0.9120871	0.6117647
68	0.9252489	0.6115942
69	0.9386923	0.6114286
70	0.9516474	0.6112676
71	0.9516474	0.6027778
72	0.9604397	0.6
73	0.9650909	0.5945946
74	0.9736015	0.592
75	0.9736015	0.5842105
76	0.9911111	0.58701295
77	0.9955555	0.5820513
78	0.9955555	0.57468355
79	1.0	0.57
-1	2	0	NO REAL DATA!
